%YAML 1.1
%TAG !u! tag:unity3d.com,2011:
--- !u!1 &3681877159573181290
GameObject:
  m_ObjectHideFlags: 0
  m_CorrespondingSourceObject: {fileID: 0}
  m_PrefabInstance: {fileID: 0}
  m_PrefabAsset: {fileID: 0}
  serializedVersion: 6
  m_Component:
  - component: {fileID: 3681877159573181291}
  - component: {fileID: 3681877159573181288}
  - component: {fileID: 3681877159573181286}
  - component: {fileID: 238729013050831127}
  m_Layer: 0
  m_Name: GameManager
  m_TagString: GameController
  m_Icon: {fileID: 0}
  m_NavMeshLayer: 0
  m_StaticEditorFlags: 0
  m_IsActive: 1
--- !u!4 &3681877159573181291
Transform:
  m_ObjectHideFlags: 0
  m_CorrespondingSourceObject: {fileID: 0}
  m_PrefabInstance: {fileID: 0}
  m_PrefabAsset: {fileID: 0}
  m_GameObject: {fileID: 3681877159573181290}
  m_LocalRotation: {x: 0, y: 0, z: 0, w: 1}
  m_LocalPosition: {x: 0, y: 0, z: 0}
  m_LocalScale: {x: 1, y: 1, z: 1}
  m_Children: []
  m_Father: {fileID: 0}
  m_RootOrder: 0
  m_LocalEulerAnglesHint: {x: 0, y: 0, z: 0}
--- !u!114 &3681877159573181288
MonoBehaviour:
  m_ObjectHideFlags: 0
  m_CorrespondingSourceObject: {fileID: 0}
  m_PrefabInstance: {fileID: 0}
  m_PrefabAsset: {fileID: 0}
  m_GameObject: {fileID: 3681877159573181290}
  m_Enabled: 1
  m_EditorHideFlags: 0
  m_Script: {fileID: 11500000, guid: a52317411e3a58546915ff1c3817f130, type: 3}
  m_Name: 
  m_EditorClassIdentifier: 
  nameText: {fileID: 0}
  dialogueText: {fileID: 0}
  anim: {fileID: 0}
  isOpen: 0
  endDialogue: 0
--- !u!114 &3681877159573181286
MonoBehaviour:
  m_ObjectHideFlags: 0
  m_CorrespondingSourceObject: {fileID: 0}
  m_PrefabInstance: {fileID: 0}
  m_PrefabAsset: {fileID: 0}
  m_GameObject: {fileID: 3681877159573181290}
  m_Enabled: 1
  m_EditorHideFlags: 0
  m_Script: {fileID: 11500000, guid: c8e575612b542ea4191dad1be89f1d06, type: 3}
  m_Name: 
  m_EditorClassIdentifier: 
  activeQuest: 0
  currentQuestID: 0
  currentWatch: 0
  finalMoney: 20
  finalRating: 3
  rating: 5
  money: 0
  deliveriesFinished: 0
  stopwatchUI: {fileID: 0}
  star: {fileID: 3982237014790814610, guid: f7b29687c2df1ac458826ca802e9b6df, type: 3}
  starHolder: {fileID: 0}
  maxTimer: 0
  decayTimer: 0
--- !u!114 &238729013050831127
MonoBehaviour:
  m_ObjectHideFlags: 0
  m_CorrespondingSourceObject: {fileID: 0}
  m_PrefabInstance: {fileID: 0}
  m_PrefabAsset: {fileID: 0}
  m_GameObject: {fileID: 3681877159573181290}
  m_Enabled: 1
  m_EditorHideFlags: 0
  m_Script: {fileID: 11500000, guid: d5e20367e9eed804b8b70193be0f31f8, type: 3}
  m_Name: 
  m_EditorClassIdentifier: 
  sun: {fileID: 3988666708875661722, guid: 9191ff59b4739d04282b48e369b97de3, type: 3}
  dayTimeLimit: 45
  currentDay: 1
  maxNumberOfDays: 3
  dayText: {fileID: 0}
